{"premium":[{"membershipId":"5e09b4e38126e112506f5ed5","type":"Lifetime Membership",
	"amount":2500,
	"benefits":"Free delivery on all orders above Rs. 1500,Extra 10% off all purchases,Premium customer support service",
	"amountType":"percentage",
	"percentage":10,
	"minimumAmount":1500,
	"freeDelivery":true,
	"untilYear":""
	},
	{"membershipId":"5e09b4e38126e112506f5ed6",
	"type":"Annual Membership -12 months",
	"benefits":"Free delivery on all orders above Rs. 1500,Extra 10% off all purchases,Premium customer support service",
	"amount":1000,
	"amountType":"percentage",
	"percentage":10,
	"minimumAmount":1500,
	"uptoYear":1
	}],
"address":"CORPQLO CLOTHING PVT.LTD 805,2nd Floor ,13th main road ,Yelehanka Newtown,Bangalore 560064",
"primaryPhone":"+91 9513902244",
"secondaryPhone":"+91 9513902255",
"email":"info@corpqlo.com"}
